…
``` r
## Let's re-order the factor 'continent' to see how that 
## will be affected once we import the data again
## order by frequency
df$continent <- factor(df$continent, levels = c("Europe", "Americas", "Africa", "Asia"))

## Let's save our R object 'df' to a file (to the working directory)
saveRDS(object = df, file = "data/df.rds")

## We can read it back in
readRDS("data/df.rds")
```

    ## # A tibble: 1,680 x 6
    ##    country     continent  year lifeExp      pop gdpPercap
    ##    <fct>       <fct>     <int>   <dbl>    <int>     <dbl>
    ##  1 Afghanistan Asia       1952    28.8  8425333      779.
    ##  2 Afghanistan Asia       1957    30.3  9240934      821.
    ##  3 Afghanistan Asia       1962    32.0 10267083      853.
    ##  4 Afghanistan Asia       1967    34.0 11537966      836.
    ##  5 Afghanistan Asia       1972    36.1 13079460      740.
    ##  6 Afghanistan Asia       1977    38.4 14880372      786.
    ##  7 Afghanistan Asia       1982    39.9 12881816      978.
    ##  8 Afghanistan Asia       1987    40.8 13867957      852.
    ##  9 Afghanistan Asia       1992    41.7 16317921      649.
    ## 10 Afghanistan Asia       1997    41.8 22227415      635.
    ## # ... with 1,670 more rows
…
